<svg width="326" height="101" viewBox="0 0 326 101" fill="none" xmlns="http://www.w3.org/2000/svg">
<path d="M51.9329 79.4588C29.9103 79.4588 11.9937 61.6363 11.9937 39.7294C11.9937 17.8225 29.9103 0 51.9329 0C73.9555 0 91.8721 17.8225 91.8721 39.7294C91.8721 61.6363 73.9531 79.4588 51.9329 79.4588ZM51.9329 2.55092C31.3228 2.55092 14.5532 19.23 14.5532 39.7318C14.5532 60.2336 31.3228 76.9127 51.9329 76.9127C72.543 76.9127 89.3102 60.2288 89.3102 39.7294C89.3102 19.23 72.543 2.54607 51.9329 2.54607V2.55092Z" fill="#D6CBFF"/>
<path fill-rule="evenodd" clip-rule="evenodd" d="M53.2115 68.3998C52.7877 68.4167 52.3616 68.4264 51.9329 68.4264C44.5684 68.4181 37.4865 65.6057 32.1411 60.5664C26.7958 55.5272 23.5926 48.6435 23.1891 41.3287C22.7857 34.0139 25.2127 26.823 29.9718 21.2323C34.7309 15.6416 41.461 12.0753 48.7804 11.2657C56.0998 10.4561 63.4531 12.4646 69.3306 16.8787C75.2081 21.2929 79.1638 27.7778 80.3856 35.0021C81.6074 42.2264 80.0026 49.6419 75.9007 55.7261C71.7987 61.8104 65.5109 66.1017 58.3281 67.719V70.3232C66.22 68.689 73.1795 64.1022 77.7694 57.5103C82.3592 50.9183 84.2288 42.8247 82.992 34.9009C81.7552 26.9771 77.5065 19.8284 71.1233 14.9313C64.7401 10.0342 56.7101 7.76259 48.6916 8.58574C40.6731 9.40889 33.2786 13.2639 28.0354 19.3546C22.7921 25.4452 20.1005 33.3064 20.5165 41.3144C20.9326 49.3224 24.4244 56.8657 30.2708 62.3863C36.1173 67.9069 43.8719 70.9832 51.9329 70.9797C52.3616 70.9797 52.7877 70.9797 53.2115 70.9555V68.3998Z" fill="#7B58E5"/>
<path d="M53.2114 51.7329H50.6543V70.9726H53.2114V51.7329Z" fill="#7B58E5"/>
<path d="M52.7849 24.0337H50.9365V32.8032H52.7849V24.0337Z" fill="#72777C"/>
<path d="M51.9134 25.4365C51.2586 25.4351 50.617 25.2538 50.0593 24.9126C49.5016 24.5714 49.0495 24.0835 48.753 23.5028C48.4564 22.9221 48.327 22.2712 48.3789 21.622C48.4307 20.9727 48.662 20.3503 49.047 19.8235C49.6015 19.0654 50.4361 18.5574 51.3671 18.4113C52.2981 18.2653 53.2493 18.4931 54.0114 19.0447C54.7736 19.5963 55.2842 20.4264 55.4311 21.3525C55.5779 22.2786 55.3489 23.2249 54.7944 23.983V23.983C54.521 24.3592 54.1753 24.6777 53.7774 24.9202C53.3794 25.1626 52.9371 25.3241 52.4759 25.3953C52.2898 25.4235 52.1017 25.4372 51.9134 25.4365V25.4365ZM51.9134 20.0658C51.646 20.0649 51.3817 20.1218 51.1387 20.2327C50.8957 20.3435 50.6798 20.5056 50.5061 20.7077C50.3323 20.9098 50.2048 21.1471 50.1324 21.4031C50.0601 21.6591 50.0445 21.9277 50.0869 22.1903C50.1446 22.549 50.3077 22.8827 50.5558 23.1492C50.8039 23.4157 51.1258 23.6032 51.4809 23.688C51.836 23.7727 52.2084 23.7509 52.551 23.6254C52.8937 23.4998 53.1913 23.2761 53.4062 22.9825V22.9825C53.6039 22.7086 53.7219 22.3858 53.7474 22.0496C53.7728 21.7134 53.7047 21.3766 53.5505 21.0764C53.3963 20.7761 53.162 20.5239 52.8732 20.3473C52.5844 20.1708 52.2523 20.0767 51.9134 20.0755V20.0658Z" fill="#72777C"/>
<path d="M57.4033 29.7365L53.2852 33.8315L54.5919 35.1319L58.71 31.0369L57.4033 29.7365Z" fill="#72777C"/>
<path d="M52.7849 38.7363H50.9365V47.501H52.7849V38.7363Z" fill="#72777C"/>
<path d="M51.928 39.1842C51.13 39.1827 50.3557 38.9141 49.7299 38.4215C49.104 37.929 48.6631 37.2412 48.4781 36.469C48.2931 35.6969 48.3749 34.8852 48.7101 34.1648C49.0454 33.4445 49.6146 32.8573 50.3262 32.498C51.0378 32.1387 51.8502 32.0282 52.6327 32.1841C53.4151 32.3401 54.122 32.7536 54.6394 33.3579C55.1569 33.9622 55.4547 34.7222 55.485 35.5155C55.5154 36.3087 55.2763 37.089 54.8065 37.7306C54.4771 38.1828 54.0443 38.5505 53.5437 38.8032C53.0432 39.056 52.4893 39.1866 51.928 39.1842V39.1842ZM51.928 33.8134C51.4877 33.8127 51.0617 33.9684 50.7266 34.2523C50.3914 34.5363 50.1692 34.9299 50.0998 35.3623C50.0304 35.7947 50.1184 36.2376 50.3481 36.6112C50.5777 36.9849 50.9338 37.2647 51.3524 37.4003C51.771 37.536 52.2245 37.5186 52.6313 37.3513C53.0381 37.184 53.3716 36.8777 53.5716 36.4876C53.7717 36.0975 53.8252 35.6492 53.7225 35.2234C53.6199 34.7975 53.3678 34.4221 53.0117 34.1647C52.6987 33.9384 52.3222 33.8156 51.9353 33.8134H51.928Z" fill="#72777C"/>
<path d="M59.5652 32.5055C58.7687 32.5024 57.9964 32.2328 57.3726 31.7402C56.7489 31.2475 56.3099 30.5604 56.1263 29.7894C55.9427 29.0184 56.0253 28.2084 56.3606 27.4898C56.696 26.7711 57.2646 26.1856 57.9751 25.8275C58.6856 25.4693 59.4965 25.3594 60.2774 25.5153C61.0583 25.6713 61.7638 26.0841 62.2803 26.6872C62.7967 27.2904 63.0941 28.0489 63.1247 28.8406C63.1552 29.6323 62.9171 30.4112 62.4486 31.052C62.1745 31.428 61.8283 31.7463 61.43 31.9887C61.0317 32.2311 60.5891 32.3927 60.1277 32.4643C59.9416 32.4924 59.7535 32.5062 59.5652 32.5055V32.5055ZM59.5652 27.1348C59.3109 27.1353 59.0595 27.188 58.8268 27.2897C58.594 27.3914 58.3848 27.5398 58.2124 27.7257C58.04 27.9115 57.908 28.1308 57.8247 28.3698C57.7415 28.6088 57.7088 28.8622 57.7286 29.1144C57.7485 29.3665 57.8205 29.6119 57.9401 29.835C58.0597 30.0582 58.2244 30.2544 58.4238 30.4112C58.6232 30.5681 58.853 30.6824 59.0989 30.7468C59.3447 30.8112 59.6013 30.8244 59.8525 30.7855C60.0919 30.7498 60.3217 30.6672 60.5286 30.5425C60.7355 30.4177 60.9155 30.2533 61.058 30.0588V30.0588C61.2557 29.7848 61.3737 29.4621 61.3991 29.1258C61.4246 28.7896 61.3565 28.4529 61.2023 28.1526C61.0481 27.8524 60.8138 27.6001 60.525 27.4236C60.2362 27.247 59.9041 27.153 59.5652 27.1517V27.1348Z" fill="#7B58E5"/>
<path d="M46.4591 29.7338L45.1523 31.0342L49.2704 35.1292L50.5772 33.8288L46.4591 29.7338Z" fill="#72777C"/>
<path d="M44.3006 32.5054C44.1114 32.5053 43.9226 32.4907 43.7356 32.4618C43.2742 32.3906 42.8317 32.2288 42.4337 31.9859C42.0357 31.7431 41.6901 31.4239 41.4172 31.0471V31.0471C40.9481 30.406 40.7095 29.6265 40.7399 28.8341C40.7702 28.0417 41.0677 27.2825 41.5845 26.6788C42.1013 26.075 42.8073 25.6618 43.5888 25.5057C44.3703 25.3495 45.182 25.4595 45.893 25.818C46.6041 26.1764 47.1732 26.7624 47.5088 27.4817C47.8443 28.201 47.9268 29.0116 47.743 29.7832C47.5591 30.5548 47.1196 31.2424 46.4952 31.7353C45.8708 32.2282 45.0978 32.4978 44.3006 32.5006V32.5054ZM44.2884 27.1323C43.95 27.1348 43.6188 27.2297 43.3309 27.4066C43.043 27.5835 42.8095 27.8357 42.6558 28.1355C42.502 28.4354 42.434 28.7715 42.4591 29.1072C42.4841 29.4429 42.6014 29.7653 42.798 30.0393V30.0393C43.0861 30.4335 43.5198 30.6977 44.0037 30.7738C44.4875 30.8499 44.982 30.7316 45.3782 30.4451C45.7745 30.1585 46.0401 29.7271 46.1166 29.2458C46.1931 28.7644 46.0742 28.2726 45.7862 27.8784C45.6132 27.6455 45.3874 27.4565 45.1271 27.3269C44.8669 27.1972 44.5795 27.1305 44.2884 27.1323V27.1323Z" fill="#72777C"/>
<path d="M57.2905 43.5705L53.1724 47.6655L54.4792 48.9659L58.5973 44.8709L57.2905 43.5705Z" fill="#787878"/>
<path d="M61.6271 43.5673L60.3203 44.8677L64.4384 48.9627L65.7452 47.6623L61.6271 43.5673Z" fill="#72777C"/>
<path d="M66.9906 53.0992C66.145 53.0994 65.3271 52.7995 64.6841 52.2533C64.041 51.7072 63.615 50.9507 63.4827 50.1199C63.3504 49.2892 63.5204 48.4387 63.9623 47.7216C64.4041 47.0044 65.0887 46.4677 65.8929 46.2079C66.6971 45.9481 67.5681 45.9823 68.3492 46.3043C69.1303 46.6264 69.7703 47.2152 70.1539 47.9647C70.5375 48.7143 70.6396 49.5754 70.4419 50.3932C70.2442 51.211 69.7595 51.9317 69.0752 52.4258C68.4692 52.8635 67.7395 53.0992 66.9906 53.0992ZM66.9906 47.7237C66.652 47.7258 66.3204 47.8203 66.0322 47.9971C65.7439 48.1738 65.51 48.4259 65.356 48.7259C65.202 49.0258 65.1337 49.3621 65.1587 49.698C65.1837 50.0339 65.301 50.3566 65.4977 50.6307V50.6307C65.6823 50.8865 65.93 51.0908 66.2169 51.224C66.5038 51.3571 66.8202 51.4147 67.1359 51.391C67.4516 51.3674 67.7559 51.2634 68.0195 51.089C68.2831 50.9146 68.4972 50.6757 68.6413 50.3953C68.7853 50.1148 68.8544 49.8022 68.8419 49.4876C68.8294 49.1729 68.7358 48.8667 68.57 48.5984C68.4043 48.3301 68.1719 48.1087 67.8953 47.9555C67.6187 47.8024 67.3071 47.7225 66.9906 47.7237V47.7237Z" fill="#7B58E5"/>
<path d="M64.8188 36.8073L60.7007 40.9023L62.0075 42.2027L66.1256 38.1077L64.8188 36.8073Z" fill="#72777C"/>
<path d="M59.4412 46.338C58.6434 46.3354 57.8697 46.0659 57.2446 45.5727C56.6195 45.0796 56.1795 44.3915 55.9954 43.6193C55.8112 42.8472 55.8937 42.0358 56.2294 41.3159C56.5652 40.596 57.1348 40.0095 57.8464 39.6508C58.5581 39.292 59.3704 39.182 60.1525 39.3383C60.9347 39.4947 61.6412 39.9083 62.1583 40.5126C62.6754 41.117 62.973 41.8768 63.0031 42.6699C63.0333 43.4629 62.7943 44.243 62.3246 44.8844C62.0512 45.2606 61.7055 45.5792 61.3076 45.8216C60.9096 46.064 60.4673 46.2255 60.0062 46.2968C59.8192 46.3249 59.6303 46.3387 59.4412 46.338V46.338ZM59.4412 40.9672C59.1245 40.9656 58.8127 41.0451 58.5359 41.1981C58.259 41.351 58.0263 41.5722 57.8602 41.8404C57.6941 42.1086 57.6002 42.4148 57.5875 42.7296C57.5747 43.0444 57.6436 43.3571 57.7875 43.6377C57.9314 43.9184 58.1454 44.1575 58.409 44.332C58.6726 44.5066 58.977 44.6108 59.2928 44.6345C59.6085 44.6583 59.9251 44.6008 60.2122 44.4677C60.4992 44.3345 60.7469 44.1302 60.9316 43.8742V43.8742C61.13 43.6007 61.2488 43.278 61.2748 42.9417C61.3008 42.6054 61.233 42.2684 61.079 41.9679C60.9249 41.6674 60.6905 41.415 60.4015 41.2384C60.1126 41.0619 59.7803 40.968 59.4412 40.9672V40.9672Z" fill="#72777C"/>
<path d="M66.9905 39.5743C66.1925 39.5728 65.4182 39.3042 64.7924 38.8117C64.1665 38.3191 63.7256 37.6314 63.5406 36.8592C63.3556 36.087 63.4374 35.2753 63.7726 34.555C64.1079 33.8346 64.6771 33.2475 65.3887 32.8882C66.1003 32.5289 66.9127 32.4183 67.6952 32.5743C68.4776 32.7303 69.1845 33.1437 69.7019 33.748C70.2194 34.3524 70.5172 35.1124 70.5475 35.9056C70.5779 36.6988 70.3388 37.4791 69.869 38.1208C69.5387 38.5719 69.1056 38.9389 68.6053 39.1915C68.1049 39.4441 67.5516 39.5753 66.9905 39.5743ZM66.9905 34.2036C66.5507 34.2033 66.1254 34.3591 65.7909 34.6431C65.4564 34.9271 65.2349 35.3205 65.166 35.7525C65.0972 36.1845 65.1857 36.6268 65.4156 36.9997C65.6454 37.3726 66.0015 37.6516 66.4198 37.7865C66.8381 37.9215 67.291 37.9035 67.6971 37.7357C68.1032 37.568 68.4358 37.2616 68.635 36.8716C68.8342 36.4817 68.8869 36.0338 68.7836 35.6086C68.6804 35.1834 68.4279 34.8089 68.0717 34.5524C67.7572 34.3259 67.3788 34.2038 66.9905 34.2036Z" fill="#72777C"/>
<path d="M46.5753 43.5658L45.2686 44.8662L49.3867 48.9612L50.6934 47.6609L46.5753 43.5658Z" fill="#787878"/>
<path d="M42.2367 43.5749L38.1187 47.6699L39.4254 48.9703L43.5435 44.8753L42.2367 43.5749Z" fill="#787878"/>
<path d="M36.8704 53.102C36.2144 53.1016 35.5713 52.9206 35.0124 52.579C34.4535 52.2374 34.0006 51.7485 33.7038 51.1666C33.407 50.5847 33.278 49.9324 33.3309 49.282C33.3839 48.6316 33.6169 48.0085 34.004 47.4817C34.2738 47.0952 34.6185 46.7663 35.0178 46.5141C35.4171 46.2618 35.863 46.0915 36.3294 46.013C36.7957 45.9344 37.2732 45.9493 37.7337 46.0568C38.1942 46.1642 38.6285 46.362 39.0111 46.6386C39.3938 46.9152 39.717 47.265 39.962 47.6675C40.2069 48.0701 40.3686 48.5172 40.4376 48.9827C40.5065 49.4482 40.4813 49.9227 40.3635 50.3783C40.2456 50.834 40.0375 51.2617 39.7513 51.6363V51.6363C39.4784 52.0132 39.1329 52.3323 38.7349 52.5752C38.3369 52.8181 37.8943 52.9798 37.4329 53.0511C37.247 53.0825 37.0589 53.0995 36.8704 53.102ZM36.8704 47.7288C36.6029 47.7283 36.3385 47.7855 36.0955 47.8967C35.8525 48.0078 35.6367 48.1701 35.463 48.3724C35.2893 48.5747 35.1618 48.8121 35.0894 49.0682C35.0171 49.3244 35.0015 49.5931 35.0439 49.8558C35.1015 50.2145 35.2647 50.5481 35.5128 50.8147C35.7609 51.0812 36.0828 51.2687 36.4379 51.3534C36.793 51.4382 37.1653 51.4164 37.508 51.2908C37.8506 51.1653 38.1482 50.9416 38.3632 50.648V50.648C38.56 50.3738 38.6772 50.0512 38.7022 49.7153C38.7272 49.3794 38.659 49.0431 38.5049 48.7431C38.3509 48.4432 38.117 48.1911 37.8287 48.0143C37.5405 47.8376 37.209 47.743 36.8704 47.7409V47.7288Z" fill="#787878"/>
<path d="M39.048 36.8026L37.7412 38.103L41.8593 42.1981L43.1661 40.8977L39.048 36.8026Z" fill="#787878"/>
<path d="M44.4126 46.3381C44.2242 46.338 44.0361 46.3235 43.85 46.2945C42.946 46.1517 42.1326 45.6665 41.5803 44.9405C41.0279 44.2144 40.7794 43.304 40.8868 42.3997C40.9942 41.4955 41.4492 40.6677 42.1565 40.0897C42.8638 39.5118 43.7684 39.2285 44.681 39.2992C45.5935 39.37 46.4432 39.7892 47.0519 40.4692C47.6606 41.1492 47.9812 42.0371 47.9466 42.947C47.9119 43.8568 47.5246 44.718 46.8658 45.3502C46.207 45.9823 45.3279 46.3364 44.4126 46.3381V46.3381ZM44.4126 40.9674C44.074 40.9695 43.7425 41.0641 43.4542 41.2408C43.166 41.4175 42.9321 41.6696 42.778 41.9696C42.624 42.2696 42.5557 42.6058 42.5807 42.9417C42.6057 43.2777 42.723 43.6003 42.9197 43.8744V43.8744C43.2113 44.2596 43.6433 44.5155 44.1227 44.5869C44.6021 44.6583 45.0905 44.5395 45.4827 44.2561C45.8749 43.9727 46.1395 43.5474 46.2195 43.0719C46.2995 42.5963 46.1884 42.1085 45.9103 41.7135C45.7364 41.4793 45.509 41.2895 45.2469 41.1598C44.9849 41.0301 44.6956 40.9641 44.4028 40.9674H44.4126Z" fill="#7B58E5"/>
<path d="M36.8824 39.5743C36.3213 39.5755 35.7678 39.4444 35.2675 39.1918C34.7671 38.9391 34.3341 38.5721 34.0039 38.1208V38.1208C33.534 37.4791 33.295 36.6988 33.3253 35.9056C33.3556 35.1124 33.6535 34.3524 34.1709 33.748C34.6884 33.1437 35.3952 32.7303 36.1777 32.5743C36.9601 32.4183 37.7726 32.5289 38.4842 32.8882C39.1957 33.2475 39.765 33.8346 40.1003 34.555C40.4355 35.2753 40.5172 36.087 40.3322 36.8592C40.1472 37.6314 39.7063 38.3191 39.0805 38.8117C38.4547 39.3042 37.6804 39.5728 36.8824 39.5743V39.5743ZM35.3822 37.1203C35.5971 37.4146 35.8948 37.6389 36.2378 37.7648C36.5808 37.8908 36.9536 37.9127 37.3091 37.8279C37.6646 37.743 37.9869 37.5552 38.2351 37.2882C38.4833 37.0212 38.6463 36.6869 38.7035 36.3277C38.7608 35.9685 38.7096 35.6005 38.5566 35.2702C38.4035 34.9399 38.1555 34.6622 37.8438 34.4722C37.532 34.2821 37.1707 34.1883 36.8053 34.2026C36.44 34.2169 36.0872 34.3386 35.7914 34.5524C35.3954 34.8394 35.13 35.2709 35.0533 35.7522C34.9766 36.2336 35.0949 36.7255 35.3822 37.1203V37.1203Z" fill="#72777C"/>
<path d="M51.9258 52.937C51.1272 52.9353 50.3525 52.6662 49.7264 52.1732C49.1004 51.6801 48.6594 50.9917 48.4745 50.2189C48.2897 49.4461 48.3717 48.6339 48.7074 47.9132C49.0432 47.1925 49.613 46.6051 50.3252 46.2458C51.0374 45.8865 51.8504 45.7761 52.6334 45.9325C53.4163 46.0888 54.1235 46.5028 54.6411 47.1077C55.1587 47.7126 55.4565 48.4733 55.4865 49.2671C55.5166 50.0609 55.2771 50.8416 54.8068 51.4835V51.4835C54.5334 51.86 54.1878 52.1789 53.7899 52.4217C53.3919 52.6645 52.9496 52.8265 52.4883 52.8983C52.3021 52.9255 52.114 52.9385 51.9258 52.937V52.937ZM51.9258 47.5639C51.828 47.5639 51.7303 47.5712 51.6335 47.5857C51.3346 47.6343 51.0522 47.7553 50.8112 47.938C50.5703 48.1208 50.3782 48.3596 50.2518 48.6335C50.1255 48.9074 50.0688 49.208 50.0867 49.5089C50.1045 49.8097 50.1965 50.1016 50.3544 50.3588C50.5124 50.6159 50.7314 50.8306 50.9923 50.9838C51.2532 51.1369 51.548 51.224 51.8507 51.2372C52.1534 51.2504 52.4547 51.1895 52.7281 51.0596C53.0015 50.9298 53.2386 50.7351 53.4186 50.4927V50.4927C53.6154 50.2186 53.7326 49.896 53.7576 49.56C53.7826 49.2241 53.7144 48.8879 53.5603 48.5879C53.4063 48.2879 53.1724 48.0358 52.8842 47.8591C52.5959 47.6824 52.2644 47.5878 51.9258 47.5857V47.5639Z" fill="#72777C"/>
<rect x="118.994" width="3" height="100" fill="#D9D9D9"/>
<path d="M153.898 40.744H145.002L143.53 45H138.826L146.858 22.632H152.074L160.106 45H155.37L153.898 40.744ZM152.682 37.16L149.45 27.816L146.218 37.16H152.682ZM179.844 27.272V45H175.332V42.76C174.756 43.528 173.999 44.136 173.06 44.584C172.143 45.0107 171.14 45.224 170.052 45.224C168.665 45.224 167.439 44.936 166.372 44.36C165.305 43.7627 164.463 42.8987 163.844 41.768C163.247 40.616 162.948 39.2507 162.948 37.672V27.272H167.428V37.032C167.428 38.44 167.78 39.528 168.484 40.296C169.188 41.0427 170.148 41.416 171.364 41.416C172.601 41.416 173.572 41.0427 174.276 40.296C174.98 39.528 175.332 38.44 175.332 37.032V27.272H179.844ZM189.48 30.952V39.528C189.48 40.1253 189.619 40.5627 189.896 40.84C190.195 41.096 190.685 41.224 191.368 41.224H193.448V45H190.632C186.856 45 184.968 43.1653 184.968 39.496V30.952H182.856V27.272H184.968V22.888H189.48V27.272H193.448V30.952H189.48ZM206.654 27.016C207.998 27.016 209.193 27.3147 210.238 27.912C211.284 28.488 212.094 29.352 212.67 30.504C213.268 31.6347 213.566 33 213.566 34.6V45H209.086V35.208C209.086 33.8 208.734 32.7227 208.03 31.976C207.326 31.208 206.366 30.824 205.15 30.824C203.913 30.824 202.932 31.208 202.206 31.976C201.502 32.7227 201.15 33.8 201.15 35.208V45H196.67V21.32H201.15V29.48C201.726 28.712 202.494 28.1147 203.454 27.688C204.414 27.24 205.481 27.016 206.654 27.016ZM225.699 45.288C223.992 45.288 222.456 44.9147 221.091 44.168C219.725 43.4 218.648 42.3227 217.859 40.936C217.091 39.5493 216.707 37.9493 216.707 36.136C216.707 34.3227 217.101 32.7227 217.891 31.336C218.701 29.9493 219.8 28.8827 221.187 28.136C222.573 27.368 224.12 26.984 225.827 26.984C227.533 26.984 229.08 27.368 230.467 28.136C231.853 28.8827 232.941 29.9493 233.731 31.336C234.541 32.7227 234.947 34.3227 234.947 36.136C234.947 37.9493 234.531 39.5493 233.699 40.936C232.888 42.3227 231.779 43.4 230.371 44.168C228.984 44.9147 227.427 45.288 225.699 45.288ZM225.699 41.384C226.509 41.384 227.267 41.192 227.971 40.808C228.696 40.4027 229.272 39.8053 229.699 39.016C230.125 38.2267 230.339 37.2667 230.339 36.136C230.339 34.4507 229.891 33.16 228.995 32.264C228.12 31.3467 227.043 30.888 225.763 30.888C224.483 30.888 223.405 31.3467 222.531 32.264C221.677 33.16 221.251 34.4507 221.251 36.136C221.251 37.8213 221.667 39.1227 222.499 40.04C223.352 40.936 224.419 41.384 225.699 41.384ZM242.713 30.024C243.289 29.0853 244.036 28.3493 244.953 27.816C245.892 27.2827 246.958 27.016 248.153 27.016V31.72H246.969C245.561 31.72 244.494 32.0507 243.769 32.712C243.065 33.3733 242.713 34.5253 242.713 36.168V45H238.233V27.272H242.713V30.024ZM170.058 53.664L163.818 76H158.538L154.346 60.096L149.962 76L144.714 76.032L138.698 53.664H143.498L147.434 71.008L151.978 53.664H156.97L161.258 70.912L165.226 53.664H170.058ZM180.855 76.288C179.148 76.288 177.612 75.9147 176.247 75.168C174.882 74.4 173.804 73.3227 173.015 71.936C172.247 70.5493 171.863 68.9493 171.863 67.136C171.863 65.3227 172.258 63.7227 173.047 62.336C173.858 60.9493 174.956 59.8827 176.343 59.136C177.73 58.368 179.276 57.984 180.983 57.984C182.69 57.984 184.236 58.368 185.623 59.136C187.01 59.8827 188.098 60.9493 188.887 62.336C189.698 63.7227 190.103 65.3227 190.103 67.136C190.103 68.9493 189.687 70.5493 188.855 71.936C188.044 73.3227 186.935 74.4 185.527 75.168C184.14 75.9147 182.583 76.288 180.855 76.288ZM180.855 72.384C181.666 72.384 182.423 72.192 183.127 71.808C183.852 71.4027 184.428 70.8053 184.855 70.016C185.282 69.2267 185.495 68.2667 185.495 67.136C185.495 65.4507 185.047 64.16 184.151 63.264C183.276 62.3467 182.199 61.888 180.919 61.888C179.639 61.888 178.562 62.3467 177.687 63.264C176.834 64.16 176.407 65.4507 176.407 67.136C176.407 68.8213 176.823 70.1227 177.655 71.04C178.508 71.936 179.575 72.384 180.855 72.384ZM197.869 61.024C198.445 60.0853 199.192 59.3493 200.109 58.816C201.048 58.2827 202.114 58.016 203.309 58.016V62.72H202.125C200.717 62.72 199.65 63.0507 198.925 63.712C198.221 64.3733 197.869 65.5253 197.869 67.168V76H193.389V58.272H197.869V61.024ZM216.823 76L210.807 68.448V76H206.327V52.32H210.807V65.792L216.759 58.272H222.583L214.775 67.168L222.647 76H216.823ZM229.494 60.864C230.07 60.0107 230.859 59.3173 231.862 58.784C232.886 58.2507 234.049 57.984 235.35 57.984C236.865 57.984 238.23 58.3573 239.446 59.104C240.683 59.8507 241.654 60.9173 242.358 62.304C243.083 63.6693 243.446 65.2587 243.446 67.072C243.446 68.8853 243.083 70.496 242.358 71.904C241.654 73.2907 240.683 74.368 239.446 75.136C238.23 75.904 236.865 76.288 235.35 76.288C234.027 76.288 232.865 76.032 231.862 75.52C230.881 74.9867 230.091 74.304 229.494 73.472V76H225.014V52.32H229.494V60.864ZM238.87 67.072C238.87 66.0053 238.646 65.088 238.198 64.32C237.771 63.5307 237.195 62.9333 236.47 62.528C235.766 62.1227 234.998 61.92 234.166 61.92C233.355 61.92 232.587 62.1333 231.862 62.56C231.158 62.9653 230.582 63.5627 230.134 64.352C229.707 65.1413 229.494 66.0693 229.494 67.136C229.494 68.2027 229.707 69.1307 230.134 69.92C230.582 70.7093 231.158 71.3173 231.862 71.744C232.587 72.1493 233.355 72.352 234.166 72.352C234.998 72.352 235.766 72.1387 236.47 71.712C237.195 71.2853 237.771 70.6773 238.198 69.888C238.646 69.0987 238.87 68.16 238.87 67.072ZM263.182 66.752C263.182 67.392 263.139 67.968 263.054 68.48H250.094C250.2 69.76 250.648 70.7627 251.438 71.488C252.227 72.2133 253.198 72.576 254.35 72.576C256.014 72.576 257.198 71.8613 257.902 70.432H262.734C262.222 72.1387 261.24 73.5467 259.79 74.656C258.339 75.744 256.558 76.288 254.446 76.288C252.739 76.288 251.203 75.9147 249.838 75.168C248.494 74.4 247.438 73.3227 246.67 71.936C245.923 70.5493 245.55 68.9493 245.55 67.136C245.55 65.3013 245.923 63.6907 246.67 62.304C247.416 60.9173 248.462 59.8507 249.806 59.104C251.15 58.3573 252.696 57.984 254.446 57.984C256.131 57.984 257.635 58.3467 258.958 59.072C260.302 59.7973 261.336 60.832 262.062 62.176C262.808 63.4987 263.182 65.024 263.182 66.752ZM258.542 65.472C258.52 64.32 258.104 63.4027 257.294 62.72C256.483 62.016 255.491 61.664 254.318 61.664C253.208 61.664 252.27 62.0053 251.502 62.688C250.755 63.3493 250.296 64.2773 250.126 65.472H258.542ZM276.276 58.016C278.388 58.016 280.094 58.688 281.396 60.032C282.697 61.3547 283.348 63.2107 283.348 65.6V76H278.868V66.208C278.868 64.8 278.516 63.7227 277.812 62.976C277.108 62.208 276.148 61.824 274.932 61.824C273.694 61.824 272.713 62.208 271.988 62.976C271.284 63.7227 270.932 64.8 270.932 66.208V76H266.452V58.272H270.932V60.48C271.529 59.712 272.286 59.1147 273.204 58.688C274.142 58.24 275.166 58.016 276.276 58.016ZM286.456 67.136C286.456 65.3013 286.829 63.7013 287.576 62.336C288.323 60.9493 289.357 59.8827 290.68 59.136C292.003 58.368 293.517 57.984 295.224 57.984C297.421 57.984 299.235 58.5387 300.664 59.648C302.115 60.736 303.085 62.272 303.576 64.256H298.744C298.488 63.488 298.051 62.8907 297.432 62.464C296.835 62.016 296.088 61.792 295.192 61.792C293.912 61.792 292.899 62.2613 292.152 63.2C291.405 64.1173 291.032 65.4293 291.032 67.136C291.032 68.8213 291.405 70.1333 292.152 71.072C292.899 71.9893 293.912 72.448 295.192 72.448C297.005 72.448 298.189 71.6373 298.744 70.016H303.576C303.085 71.936 302.115 73.4613 300.664 74.592C299.213 75.7227 297.4 76.288 295.224 76.288C293.517 76.288 292.003 75.9147 290.68 75.168C289.357 74.4 288.323 73.3333 287.576 71.968C286.829 70.5813 286.456 68.9707 286.456 67.136ZM316.842 58.016C318.186 58.016 319.381 58.3147 320.426 58.912C321.471 59.488 322.282 60.352 322.858 61.504C323.455 62.6347 323.754 64 323.754 65.6V76H319.274V66.208C319.274 64.8 318.922 63.7227 318.218 62.976C317.514 62.208 316.554 61.824 315.338 61.824C314.101 61.824 313.119 62.208 312.394 62.976C311.69 63.7227 311.338 64.8 311.338 66.208V76H306.858V52.32H311.338V60.48C311.914 59.712 312.682 59.1147 313.642 58.688C314.602 58.24 315.669 58.016 316.842 58.016Z" fill="#394150"/>
<path d="M4.02905 99.969C3.33522 99.9803 2.64591 99.8546 2.00003 99.5991C1.42875 99.3738 0.930104 98.9944 0.558785 98.5024C0.197125 97.9925 0.0018433 97.3819 0 96.7552H2.67637C2.69009 97.0899 2.82802 97.4071 3.06285 97.6442C3.31094 97.8487 3.62512 97.9538 3.94531 97.9395C4.25904 97.9569 4.56957 97.8684 4.82777 97.688C4.9336 97.6006 5.01779 97.4896 5.07368 97.3637C5.12958 97.2379 5.15565 97.1006 5.14984 96.9629C5.15359 96.8438 5.13197 96.7252 5.08641 96.6152C5.04085 96.5053 4.97243 96.4064 4.88574 96.3253C4.70367 96.1467 4.48869 96.0056 4.25288 95.91C3.90779 95.7658 3.5545 95.6423 3.1949 95.5401C2.63587 95.374 2.09004 95.1658 1.56202 94.9172C1.13173 94.7028 0.758513 94.388 0.473438 93.999C0.15226 93.5357 -0.00795603 92.9785 0.0177113 92.414C0.0177113 91.4471 0.366078 90.6901 1.06281 90.1428C1.75955 89.5956 2.66617 89.3187 3.78267 89.3122C4.91956 89.3122 5.83637 89.5891 6.53311 90.1428C7.22985 90.6965 7.60237 91.4569 7.65068 92.4237H4.92922C4.92735 92.274 4.89361 92.1264 4.83027 91.991C4.76693 91.8555 4.67547 91.7353 4.56207 91.6386C4.31842 91.4363 4.00956 91.3313 3.6941 91.3433C3.42651 91.3301 3.16397 91.42 2.95978 91.5947C2.86358 91.6816 2.78833 91.7895 2.73977 91.9101C2.69121 92.0307 2.67063 92.1609 2.67959 92.2907C2.67775 92.4527 2.72078 92.612 2.80385 92.7507C2.88691 92.8894 3.00672 93.002 3.14981 93.0759C3.61761 93.3291 4.11035 93.5324 4.62004 93.6826C5.1733 93.8622 5.71397 94.079 6.23842 94.3315C6.66564 94.5441 7.03823 94.8533 7.32701 95.2351C7.64474 95.678 7.80527 96.2157 7.78273 96.7617C7.78826 97.3327 7.63002 97.8932 7.32701 98.3759C7.01505 98.8766 6.56828 99.2778 6.03874 99.5326C5.41165 99.8335 4.72352 99.9829 4.02905 99.969V99.969ZM14.3561 99.8651L11.8553 96.3999V99.8651H9.34314V88.9034H11.8569V94.9626L14.3352 91.5996H17.4383L14.026 95.7478L17.4673 99.8651H14.3561ZM19.6895 90.7333C19.2914 90.7488 18.9023 90.6114 18.6009 90.3488C18.4692 90.2242 18.3647 90.0732 18.294 89.9057C18.2233 89.7381 18.188 89.5575 18.1903 89.3755C18.1861 89.1931 18.2205 89.012 18.2913 88.8441C18.3621 88.6763 18.4677 88.5256 18.6009 88.4021C18.8983 88.1312 19.2889 87.988 19.6895 88.003C19.8836 87.9956 20.0771 88.027 20.259 88.0955C20.4409 88.164 20.6075 88.2682 20.7491 88.4021C20.886 88.5234 20.995 88.6734 21.0684 88.8415C21.1418 89.0096 21.1779 89.1918 21.1742 89.3755C21.1756 89.5588 21.1385 89.7403 21.0652 89.908C20.9919 90.0758 20.8842 90.226 20.7491 90.3488C20.4589 90.6109 20.0789 90.7488 19.6895 90.7333V90.7333ZM20.9391 91.5931V99.8586H18.4254V91.5996L20.9391 91.5931ZM25.2854 88.9034V99.8651H22.762V88.9034H25.2854ZM29.622 88.9034V99.8651H27.0987V88.9034H29.622ZM34.7751 99.9836C34.1194 99.9953 33.4684 99.8693 32.8636 99.6137C32.3442 99.3973 31.8885 99.0505 31.5399 98.6062C31.2221 98.186 31.0329 97.6813 30.9957 97.1543H33.482C33.4943 97.2924 33.5361 97.4263 33.6044 97.5467C33.6728 97.6671 33.7662 97.7712 33.8781 97.8519C34.1305 98.0344 34.4356 98.128 34.7461 98.1179C34.999 98.1337 35.2507 98.0715 35.4675 97.9395C35.5484 97.887 35.6149 97.815 35.661 97.73C35.7071 97.645 35.7314 97.5497 35.7316 97.4528C35.7325 97.3383 35.6975 97.2265 35.6315 97.1333C35.5656 97.0401 35.4722 96.9702 35.3645 96.9337C34.9797 96.7692 34.5809 96.6405 34.1728 96.5492C33.6742 96.4373 33.1832 96.2937 32.7026 96.1193C32.3115 95.9632 31.9635 95.7145 31.6881 95.3941C31.3878 95.012 31.2361 94.5327 31.2614 94.046C31.2563 93.5871 31.3894 93.1375 31.643 92.7563C31.9309 92.3433 32.3282 92.0201 32.7896 91.8235C33.3628 91.5842 33.9793 91.4681 34.5996 91.4828C35.628 91.4828 36.437 91.7397 37.0263 92.2534C37.3231 92.509 37.5667 92.8212 37.7433 93.172C37.9199 93.5228 38.026 93.9053 38.0553 94.2975H35.73C35.715 94.1638 35.6733 94.0345 35.6074 93.9174C35.5416 93.8003 35.4529 93.6978 35.3468 93.6161C35.1102 93.4377 34.819 93.3487 34.5239 93.3647C34.2854 93.3487 34.0482 93.4107 33.8475 93.5415C33.7724 93.5911 33.7113 93.6595 33.6701 93.7399C33.629 93.8204 33.6091 93.9101 33.6124 94.0006C33.6124 94.1166 33.6475 94.23 33.7131 94.3253C33.7787 94.4207 33.8717 94.4936 33.9796 94.5343C34.3595 94.6914 34.7537 94.8104 35.1567 94.8896C35.6613 95.015 36.1572 95.1733 36.6415 95.3633C37.0332 95.5184 37.378 95.774 37.6415 96.1047C37.9526 96.4881 38.1146 96.9725 38.0972 97.4674C38.101 97.9333 37.9565 98.3881 37.685 98.7652C37.3889 99.1656 36.9864 99.4732 36.5239 99.6526C35.9688 99.8811 35.373 99.9926 34.7735 99.9803L34.7751 99.9836Z" fill="#6C4DEA"/>
<path d="M52.1489 99.8655H50.4725L45.4289 92.1776V99.8655H43.751V89.556H45.4289L50.4725 97.2229V89.5495H52.1489V99.8655ZM61.7754 95.5844C61.7774 95.8623 61.758 96.14 61.7174 96.415H55.5257C55.5511 97.0138 55.8104 97.5783 56.2472 97.9853C56.6812 98.381 57.2498 98.593 57.8349 98.5775C58.7367 98.5775 59.3739 98.1989 59.7464 97.4419H61.5548C61.3147 98.1861 60.8461 98.8343 60.2166 99.2929C59.5811 99.7666 58.7872 100.004 57.8349 100.005C57.1043 100.017 56.3831 99.8381 55.7415 99.4859C55.137 99.1326 54.6389 98.6207 54.3003 98.0048C53.9648 97.3157 53.7891 96.5588 53.7866 95.7913C53.7841 95.0237 53.9548 94.2657 54.2858 93.5743C54.6102 92.9528 55.1056 92.4386 55.7125 92.0932C56.3624 91.74 57.0918 91.5617 57.8301 91.5757C58.543 91.5625 59.2471 91.7358 59.8736 92.0786C60.4662 92.4041 60.9532 92.8946 61.2762 93.4916C61.6195 94.134 61.7915 94.855 61.7754 95.5844ZM60.0266 95.0522C60.0325 94.769 59.9763 94.4879 59.8619 94.229C59.7475 93.9702 59.5777 93.74 59.3648 93.5549C58.9158 93.1726 58.3419 92.972 57.7544 92.992C57.2062 92.9809 56.6747 93.1824 56.2697 93.5549C55.8463 93.9429 55.5841 94.4777 55.5354 95.0522H60.0266ZM65.3826 93.0812V97.5992C65.3611 97.8402 65.4352 98.0799 65.5887 98.266C65.7368 98.3941 65.9816 98.459 66.3246 98.459H67.3536V99.8655H66.0267C65.2731 99.8655 64.6933 99.6887 64.2924 99.3334C63.8914 98.9782 63.6885 98.399 63.6885 97.5992V93.0812H62.7336V91.7071H63.6885V89.6744H65.3826V91.7071H67.3536V93.0844L65.3826 93.0812ZM79.7789 91.7071L77.2652 99.8688H75.4938L73.861 93.8404L72.2281 99.8688H70.4712L67.9414 91.7071H69.6467L71.3408 98.266L73.059 91.7071H74.8094L76.4552 98.24L78.1315 91.7071H79.7789ZM84.5455 100C83.8213 100.01 83.1068 99.8313 82.4714 99.4811C81.8623 99.131 81.3608 98.6185 81.0221 97.9999C80.6593 97.3171 80.4769 96.5517 80.4923 95.7774C80.4781 95.0061 80.6659 94.2445 81.0366 93.5695C81.3831 92.9441 81.8985 92.4306 82.5229 92.0883C83.1723 91.7484 83.8934 91.5709 84.6252 91.5709C85.357 91.5709 86.0781 91.7484 86.7275 92.0883C87.3515 92.4307 87.8663 92.9443 88.2122 93.5695C88.5835 94.2443 88.7713 95.006 88.7565 95.7774C88.7714 96.5507 88.5783 97.3136 88.1977 97.9853C87.8354 98.6167 87.3064 99.1344 86.6695 99.4811C86.0162 99.8314 85.2856 100.01 84.5455 100ZM84.5455 98.532C84.9668 98.535 85.3817 98.4282 85.75 98.2222C86.1415 98.0064 86.4634 97.6821 86.6776 97.2877C86.9071 96.8209 87.0278 96.3074 87.0303 95.7864C87.0328 95.2654 86.9171 94.7507 86.6921 94.2817C86.4888 93.8896 86.1773 93.5651 85.7951 93.3472C85.4247 93.1433 85.0094 93.0365 84.5874 93.0365C84.1653 93.0365 83.75 93.1433 83.3796 93.3472C83.006 93.5663 82.7047 93.8913 82.5133 94.2817C82.2846 94.7457 82.1739 95.2596 82.1912 95.7774C82.1912 96.6567 82.4118 97.338 82.853 97.8215C83.0696 98.0533 83.3322 98.2365 83.6239 98.3589C83.9156 98.4814 84.2296 98.5404 84.5455 98.532V98.532ZM92.0851 92.8881C92.3168 92.4869 92.6503 92.1549 93.0513 91.9261C93.4951 91.6819 93.9949 91.5593 94.5006 91.5708V93.318H94.0738C93.4179 93.318 92.9181 93.4862 92.5746 93.8226C92.2311 94.1589 92.0647 94.7413 92.0754 95.5698V99.8655H90.4087V91.7071H92.0867L92.0851 92.8881ZM99.2575 95.792L102.992 99.8655H100.729L97.7293 96.3549V99.8655H96.0529V88.9038H97.7293V95.2761L100.671 91.7071H102.993L99.2575 95.792Z" fill="#72777C"/>
</svg>
