<svg width="940" height="328" viewBox="0 0 940 328" fill="none" xmlns="http://www.w3.org/2000/svg">
<circle cx="164.005" cy="163.99" r="158.737" stroke="#F6F6F6" stroke-width="10.5047"/>
<path fill-rule="evenodd" clip-rule="evenodd" d="M169.258 282.345C167.517 282.421 165.766 282.459 164.006 282.459C98.577 282.459 45.5364 229.418 45.5364 163.99C45.5364 98.5608 98.577 45.5203 164.006 45.5203C229.435 45.5203 282.475 98.5608 282.475 163.99C282.475 220.393 243.058 267.591 190.267 279.538V290.288C248.904 278.159 292.98 226.221 292.98 163.99C292.98 92.7593 235.236 35.0156 164.006 35.0156C92.7754 35.0156 35.0317 92.7593 35.0317 163.99C35.0317 235.22 92.7754 292.964 164.006 292.964C165.765 292.964 167.516 292.928 169.258 292.859V282.345Z" fill="#A089FF"/>
<line x1="164.005" y1="292.964" x2="164.005" y2="213.547" stroke="#A089FF" stroke-width="10.5047"/>
<path d="M163.714 99.2109L163.714 135.413" stroke="#A089FF" stroke-width="7.58671"/>
<circle cx="163.958" cy="90.4103" r="11.0883" transform="rotate(126 163.958 90.4103)" stroke="#A089FF" stroke-width="7.00311"/>
<line x1="189.154" y1="125.441" x2="172.247" y2="142.344" stroke="#A089FF" stroke-width="7.58671"/>
<line x1="163.714" y1="159.904" x2="163.714" y2="196.087" stroke="#A089FF" stroke-width="7.58671"/>
<circle cx="164.006" cy="147.168" r="11.0883" transform="rotate(126 164.006 147.168)" stroke="#A089FF" stroke-width="7.00311"/>
<circle cx="195.379" cy="119.59" r="11.0883" transform="rotate(126 195.379 119.59)" stroke="#F6F6F6" stroke-width="7.00311"/>
<line y1="-3.79335" x2="23.9072" y2="-3.79335" transform="matrix(0.70719 0.707023 0.707023 -0.70719 141.54 122.758)" stroke="#A089FF" stroke-width="7.58671"/>
<circle r="11.0883" transform="matrix(0.587786 0.809017 0.809017 -0.587786 132.632 119.589)" stroke="#A089FF" stroke-width="7.00311"/>
<line x1="188.688" y1="182.541" x2="171.781" y2="199.444" stroke="#A089FF" stroke-width="7.58671"/>
<line y1="-3.79335" x2="23.9072" y2="-3.79335" transform="matrix(0.70719 0.707023 0.707023 -0.70719 203.821 179.858)" stroke="#A089FF" stroke-width="7.58671"/>
<circle r="11.0883" transform="matrix(0.587786 0.809017 0.809017 -0.587786 225.822 204.609)" stroke="#F6F6F6" stroke-width="7.00311"/>
<line x1="219.597" y1="154.622" x2="202.69" y2="171.525" stroke="#A089FF" stroke-width="7.58671"/>
<circle cx="194.914" cy="176.69" r="11.0883" transform="rotate(126 194.914 176.69)" stroke="#A089FF" stroke-width="7.00311"/>
<circle cx="225.822" cy="148.771" r="11.0883" transform="rotate(126 225.822 148.771)" stroke="#A089FF" stroke-width="7.00311"/>
<line y1="-3.79335" x2="23.9072" y2="-3.79335" transform="matrix(0.70719 0.707023 0.707023 -0.70719 142.005 179.858)" stroke="#A089FF" stroke-width="7.58671"/>
<line x1="126.871" y1="182.541" x2="109.964" y2="199.444" stroke="#A089FF" stroke-width="7.58671"/>
<circle cx="102.189" cy="204.609" r="11.0883" transform="rotate(126 102.189 204.609)" stroke="#A089FF" stroke-width="7.00311"/>
<line y1="-3.79335" x2="23.9072" y2="-3.79335" transform="matrix(0.70719 0.707023 0.707023 -0.70719 111.096 151.939)" stroke="#A089FF" stroke-width="7.58671"/>
<circle r="11.0883" transform="matrix(0.587786 0.809017 0.809017 -0.587786 133.097 176.69)" stroke="#F6F6F6" stroke-width="7.00311"/>
<circle r="11.0883" transform="matrix(0.587786 0.809017 0.809017 -0.587786 102.188 148.771)" stroke="#A089FF" stroke-width="7.00311"/>
<circle cx="164.006" cy="203.926" r="11.0883" transform="rotate(126 164.006 203.926)" stroke="#A089FF" stroke-width="7.00311"/>
<path d="M415.834 146.896C411.15 146.896 406.951 146.135 403.24 144.614C399.529 143.093 396.547 140.842 394.296 137.861C392.106 134.879 390.95 131.29 390.828 127.091H407.438C407.682 129.464 408.503 131.29 409.902 132.567C411.302 133.784 413.127 134.393 415.378 134.393C417.69 134.393 419.515 133.875 420.854 132.841C422.192 131.746 422.862 130.255 422.862 128.369C422.862 126.787 422.314 125.479 421.219 124.445C420.185 123.411 418.877 122.559 417.295 121.889C415.774 121.22 413.583 120.46 410.724 119.608C406.586 118.33 403.21 117.052 400.593 115.775C397.977 114.497 395.726 112.611 393.84 110.116C391.954 107.622 391.011 104.367 391.011 100.351C391.011 94.3887 393.171 89.7343 397.49 86.3879C401.81 82.9808 407.438 81.2772 414.374 81.2772C421.432 81.2772 427.121 82.9808 431.44 86.3879C435.76 89.7343 438.072 94.4191 438.377 100.443H421.493C421.371 98.3739 420.611 96.7616 419.211 95.6056C417.812 94.3887 416.017 93.7803 413.827 93.7803C411.94 93.7803 410.419 94.2974 409.263 95.3318C408.107 96.3052 407.529 97.735 407.529 99.6211C407.529 101.69 408.503 103.302 410.45 104.458C412.397 105.614 415.439 106.861 419.576 108.2C423.713 109.599 427.06 110.938 429.615 112.216C432.231 113.493 434.483 115.349 436.369 117.783C438.255 120.216 439.198 123.35 439.198 127.183C439.198 130.833 438.255 134.149 436.369 137.13C434.543 140.112 431.866 142.485 428.338 144.249C424.809 146.013 420.641 146.896 415.834 146.896ZM479.923 146.257L464.408 124.901V146.257H448.802V78.7218H464.408V116.049L479.832 95.3318H499.088L477.915 120.886L499.271 146.257H479.923ZM513.066 90.0385C510.329 90.0385 508.077 89.2475 506.313 87.6656C504.609 86.0229 503.758 84.0151 503.758 81.6422C503.758 79.2085 504.609 77.2007 506.313 75.6188C508.077 73.9761 510.329 73.1547 513.066 73.1547C515.744 73.1547 517.934 73.9761 519.637 75.6188C521.402 77.2007 522.284 79.2085 522.284 81.6422C522.284 84.0151 521.402 86.0229 519.637 87.6656C517.934 89.2475 515.744 90.0385 513.066 90.0385ZM520.824 95.3318V146.257H505.218V95.3318H520.824ZM547.739 78.7218V146.257H532.133V78.7218H547.739ZM574.655 78.7218V146.257H559.049V78.7218H574.655ZM606.682 146.987C602.24 146.987 598.285 146.226 594.817 144.705C591.349 143.184 588.611 141.116 586.604 138.499C584.596 135.822 583.47 132.841 583.227 129.556H598.65C598.833 131.32 599.654 132.75 601.114 133.845C602.575 134.94 604.369 135.488 606.499 135.488C608.446 135.488 609.937 135.123 610.971 134.393C612.066 133.602 612.614 132.598 612.614 131.381C612.614 129.921 611.853 128.856 610.332 128.187C608.811 127.457 606.347 126.666 602.94 125.814C599.289 124.962 596.247 124.08 593.813 123.167C591.38 122.194 589.281 120.703 587.516 118.695C585.752 116.627 584.87 113.858 584.87 110.39C584.87 107.47 585.66 104.823 587.242 102.45C588.885 100.017 591.258 98.1001 594.361 96.7007C597.525 95.3013 601.267 94.6016 605.586 94.6016C611.975 94.6016 616.994 96.1836 620.645 99.3474C624.356 102.511 626.486 106.709 627.033 111.942H612.614C612.37 110.177 611.579 108.778 610.241 107.744C608.963 106.709 607.26 106.192 605.13 106.192C603.305 106.192 601.905 106.557 600.932 107.287C599.958 107.957 599.472 108.9 599.472 110.116C599.472 111.577 600.232 112.672 601.753 113.402C603.335 114.132 605.769 114.862 609.054 115.592C612.827 116.566 615.899 117.539 618.272 118.513C620.645 119.425 622.713 120.946 624.478 123.076C626.303 125.145 627.246 127.943 627.307 131.472C627.307 134.453 626.455 137.13 624.752 139.503C623.109 141.815 620.706 143.641 617.542 144.979C614.439 146.318 610.819 146.987 606.682 146.987Z" fill="#A089FF"/>
<path d="M445.951 242.683H435.547L404.244 195.317V242.683H393.84V179.163H404.244L435.547 226.438V179.163H445.951V242.683ZM505.702 216.307C505.702 218.194 505.58 219.897 505.337 221.418H466.915C467.219 225.434 468.71 228.658 471.387 231.092C474.064 233.526 477.349 234.743 481.243 234.743C486.841 234.743 490.796 232.4 493.108 227.715H504.333C502.812 232.339 500.044 236.142 496.028 239.123C492.073 242.044 487.145 243.504 481.243 243.504C476.437 243.504 472.117 242.439 468.284 240.31C464.512 238.119 461.53 235.077 459.34 231.183C457.211 227.229 456.146 222.665 456.146 217.494C456.146 212.322 457.18 207.79 459.249 203.896C461.378 199.941 464.329 196.899 468.101 194.769C471.934 192.64 476.315 191.575 481.243 191.575C485.989 191.575 490.218 192.609 493.929 194.678C497.64 196.747 500.53 199.667 502.599 203.439C504.668 207.151 505.702 211.44 505.702 216.307ZM494.842 213.022C494.781 209.189 493.412 206.116 490.735 203.804C488.058 201.492 484.742 200.336 480.787 200.336C477.197 200.336 474.125 201.492 471.569 203.804C469.014 206.056 467.493 209.128 467.006 213.022H494.842ZM528.079 200.884V228.719C528.079 230.605 528.505 231.974 529.356 232.826C530.269 233.617 531.79 234.013 533.919 234.013H540.308V242.683H532.094C527.409 242.683 523.82 241.587 521.325 239.397C518.831 237.207 517.583 233.648 517.583 228.719V200.884H511.651V192.396H517.583V179.893H528.079V192.396H540.308V200.884H528.079ZM617.432 192.396L601.826 242.683H590.874L580.744 205.538L570.614 242.683H559.662L543.965 192.396H554.551L565.047 232.826L575.725 192.396H586.585L596.807 232.644L607.211 192.396H617.432ZM647.019 243.504C642.274 243.504 637.984 242.439 634.151 240.31C630.318 238.119 627.306 235.077 625.116 231.183C622.926 227.229 621.831 222.665 621.831 217.494C621.831 212.383 622.956 207.85 625.207 203.896C627.458 199.941 630.531 196.899 634.425 194.769C638.319 192.64 642.669 191.575 647.476 191.575C652.282 191.575 656.632 192.64 660.526 194.769C664.42 196.899 667.493 199.941 669.744 203.896C671.995 207.85 673.121 212.383 673.121 217.494C673.121 222.605 671.965 227.137 669.653 231.092C667.341 235.047 664.177 238.119 660.161 240.31C656.206 242.439 651.826 243.504 647.019 243.504ZM647.019 234.469C649.696 234.469 652.191 233.83 654.503 232.552C656.876 231.275 658.792 229.358 660.253 226.803C661.713 224.247 662.443 221.144 662.443 217.494C662.443 213.843 661.743 210.771 660.344 208.276C658.944 205.721 657.089 203.804 654.777 202.527C652.465 201.249 649.97 200.61 647.293 200.61C644.616 200.61 642.121 201.249 639.809 202.527C637.558 203.804 635.763 205.721 634.425 208.276C633.086 210.771 632.417 213.843 632.417 217.494C632.417 222.909 633.786 227.107 636.524 230.088C639.323 233.009 642.821 234.469 647.019 234.469ZM693.81 199.697C695.331 197.142 697.339 195.165 699.833 193.765C702.388 192.305 705.4 191.575 708.868 191.575V202.344H706.222C702.145 202.344 699.042 203.378 696.913 205.447C694.844 207.516 693.81 211.105 693.81 216.216V242.683H683.406V192.396H693.81V199.697ZM738.327 217.585L761.508 242.683H747.453L728.836 221.053V242.683H718.432V175.148H728.836V214.391L747.088 192.396H761.508L738.327 217.585Z" fill="#F6F6F6"/>
</svg>
